[
  {
    "email": "melissa.fleming@example.com",
    "gender": "female",
    "phone_number": "0740-304-475",
    "birthdate": 469521368,
    "location": {
      "street": "3655 manchester road",
      "city": "winchester",
      "state": "berkshire",
      "postcode": "YB2 8EJ"
    },
    "username": "goldenkoala410",
    "password": "sick",
    "first_name": "melissa",
    "last_name": "fleming",
    "title": "miss",
    "picture": "women/01.png"
  },
  {
    "email": "christoffer.christiansen@example.com",
    "gender": "male",
    "phone_number": "05761325",
    "birthdate": 244475798,
    "location": {
      "street": "3391 pilevangen",
      "city": "overby lyng",
      "state": "danmark",
      "postcode": 88520
    },
    "username": "smallbird985",
    "password": "samuel",
    "first_name": "christoffer",
    "last_name": "christiansen",
    "title": "mr",
    "picture": "men/01.png"
  },
  {
    "email": "valtteri.pulkkinen@example.com",
    "gender": "male",
    "phone_number": "041-829-79-61",
    "birthdate": 9608479,
    "location": {
      "street": "6489 hermiankatu",
      "city": "parikkala",
      "state": "northern savonia",
      "postcode": 77761
    },
    "username": "brownfish540",
    "password": "peepee",
    "first_name": "valtteri",
    "last_name": "pulkkinen",
    "title": "mr",
    "picture": "men/02.png"
  },
  {
    "email": "todd.beck@example.com",
    "gender": "male",
    "phone_number": "0768-374-878",
    "birthdate": 216450355,
    "location": {
      "street": "7846 chester road",
      "city": "wakefield",
      "state": "shropshire",
      "postcode": "U43 3QT"
    },
    "username": "bigelephant503more27",
    "password": "rrrrr",
    "first_name": "todd",
    "last_name": "beck",
    "title": "mr",
    "picture": "men/03.png"
  },
  {
    "email": "kayla.hall@example.com",
    "gender": "female",
    "phone_number": "(932)-142-5202",
    "birthdate": 450297969,
    "location": {
      "street": "1935 aldwins road",
      "city": "whangarei",
      "state": "gisborne",
      "postcode": 22546
    },
    "username": "beautifulkoala36cool",
    "password": "lickit",
    "first_name": "kayla",
    "last_name": "hall",
    "title": "ms",
    "picture": "women/02.png"
  },
  {
    "email": "jimmie.simmons@example.com",
    "gender": "male",
    "phone_number": "0702-239-646",
    "birthdate": 691663054,
    "location": {
      "street": "1790 the grove",
      "city": "bangor",
      "state": "isle of wight",
      "postcode": "D0 5PJ"
    },
    "username": "silverelephant404yes",
    "password": "stang",
    "first_name": "jimmie",
    "last_name": "simmons",
    "title": "mr",
    "picture": "men/04.jpg"
  },
  {
    "email": "benedikt.hein@example.com",
    "gender": "male",
    "phone_number": "0170-2625830",
    "birthdate": 233934049,
    "location": {
      "street": "5245 kirchstraße",
      "city": "börde",
      "state": "hessen",
      "postcode": 99021
    },
    "username": "goldenelephant510zoo",
    "password": "katie1",
    "first_name": "benedikt",
    "last_name": "hein",
    "title": "mr",
    "picture": "men/05.jpeg"
  },
  {
    "email": "noah.smith@example.com",
    "gender": "male",
    "phone_number": "314-264-1915",
    "birthdate": 546423933,
    "location": {
      "street": "8380 st. lawrence ave",
      "city": "inverness",
      "state": "nova scotia",
      "postcode": 24765
    },
    "username": "silvergorilla96mybad",
    "password": "kane",
    "first_name": "noah",
    "last_name": "smith",
    "title": "mr",
    "picture": "men/06.jpeg"
  },
  {
    "email": "noah.dupont@example.com",
    "gender": "male",
    "phone_number": "(280)-900-0140",
    "birthdate": 857793035,
    "location": {
      "street": "1372 rue de bonnel",
      "city": "vucherens",
      "state": "zürich",
      "postcode": 5466
    },
    "username": "redbear614",
    "password": "adidas",
    "first_name": "noah",
    "last_name": "dupont",
    "title": "monsieur",
    "picture": "men/07.jpeg"
  },
  {
    "email": "nerea.mendez@example.com",
    "gender": "female",
    "phone_number": "600-927-322",
    "birthdate": 275245760,
    "location": {
      "street": "1759 calle de pedro bosch",
      "city": "guadalajara",
      "state": "país vasco",
      "postcode": 18953
    },
    "username": "tinybird877",
    "password": "4567",
    "first_name": "nerea",
    "last_name": "mendez",
    "title": "miss",
    "picture": "women/03.jpeg"
  },
  {
    "email": "arnold.gardner@example.com",
    "gender": "male",
    "phone_number": "0413-155-625",
    "birthdate": 583066884,
    "location": {
      "street": "5380 cackson st",
      "city": "australian capital territory",
      "state": "tasmania",
      "postcode": 1135
    },
    "username": "yellowwolf551",
    "password": "black",
    "first_name": "arnold",
    "last_name": "gardner",
    "title": "mr",
    "picture": "men/08.jpeg"
  },
  {
    "email": "julia.cano@example.com",
    "gender": "female",
    "phone_number": "614-327-163",
    "birthdate": 641668663,
    "location": {
      "street": "9417 avenida de américa",
      "city": "gijón",
      "state": "castilla la mancha",
      "postcode": 98973
    },
    "username": "tinypanda172",
    "password": "cumshot",
    "first_name": "julia",
    "last_name": "cano",
    "title": "ms",
    "picture": "women/04.jpg"
  },
  {
    "email": "annika.schulte@example.com",
    "gender": "female",
    "phone_number": "0175-0109961",
    "birthdate": 1305832059,
    "location": {
      "street": "2881 rosenweg",
      "city": "berchtesgadener land",
      "state": "hamburg",
      "postcode": 16554
    },
    "username": "lazysnake906",
    "password": "bullseye",
    "first_name": "annika",
    "last_name": "schulte",
    "title": "mrs",
    "picture": "women/05.jpg"
  },
  {
    "email": "justin.harcourt@example.com",
    "gender": "male",
    "phone_number": "645-852-4078",
    "birthdate": 1364921405,
    "location": {
      "street": "2959 oak st",
      "city": "kingston",
      "state": "newfoundland and labrador",
      "postcode": 77259
    },
    "username": "beautifulbutterfly981",
    "password": "summit",
    "first_name": "justin",
    "last_name": "harcourt",
    "title": "mr",
    "picture": "men/09.jpg"
  },
  {
    "email": "noah.bonnet@example.com",
    "gender": "male",
    "phone_number": "(653)-097-7179",
    "birthdate": 701474999,
    "location": {
      "street": "7191 rue de l'abbé-migne",
      "city": "epesses",
      "state": "graubünden",
      "postcode": 6732
    },
    "username": "ticklishswan854",
    "password": "gateway",
    "first_name": "noah",
    "last_name": "bonnet",
    "title": "monsieur",
    "picture": "men/10.jpg"
  },
  {
    "email": "eemil.neva@example.com",
    "gender": "male",
    "phone_number": "041-819-96-18",
    "birthdate": 472496396,
    "location": {
      "street": "2379 mechelininkatu",
      "city": "juupajoki",
      "state": "päijät-häme",
      "postcode": 33797
    },
    "username": "beautifuldog542",
    "password": "mustang",
    "first_name": "eemil",
    "last_name": "neva",
    "title": "mr",
    "picture": "men/11.jpg"
  },
  {
    "email": "leevi.wiitala@example.com",
    "gender": "male",
    "phone_number": "042-873-60-73",
    "birthdate": 265135376,
    "location": {
      "street": "4578 hermiankatu",
      "city": "merijärvi",
      "state": "central ostrobothnia",
      "postcode": 96652
    },
    "username": "bluegorilla445",
    "password": "europe",
    "first_name": "leevi",
    "last_name": "wiitala",
    "title": "mr",
    "picture": "men/12.jpg"
  },
  {
    "email": "alma.thomsen@example.com",
    "gender": "female",
    "phone_number": "85041366",
    "birthdate": 1268379241,
    "location": {
      "street": "6432 nøddelunden",
      "city": "juelsminde",
      "state": "midtjylland",
      "postcode": 70289
    },
    "username": "tinyfish204",
    "password": "moomoo",
    "first_name": "alma",
    "last_name": "thomsen",
    "title": "mrs",
    "picture": "women/06.jpg"
  },
  {
    "email": "mia.li@example.com",
    "gender": "female",
    "phone_number": "168-828-2650",
    "birthdate": 324722401,
    "location": {
      "street": "7013 36th ave",
      "city": "deer lake",
      "state": "yukon",
      "postcode": 91402
    },
    "username": "organicrabbit832",
    "password": "christa",
    "first_name": "mia",
    "last_name": "li",
    "title": "ms",
    "picture": "women/07.jpg"
  },
  {
    "email": "james.warren@example.com",
    "gender": "male",
    "phone_number": "0789-598-522",
    "birthdate": 524471247,
    "location": {
      "street": "4605 st. john’s road",
      "city": "dundee",
      "state": "south yorkshire",
      "postcode": "LL99 9QJ"
    },
    "username": "ticklishbird503",
    "password": "coconut",
    "first_name": "james",
    "last_name": "warren",
    "title": "mr",
    "picture": "men/13.jpg"
  },
  {
    "email": "signe.olsen@example.com",
    "gender": "female",
    "phone_number": "19695354",
    "birthdate": 53398679,
    "location": {
      "street": "2056 hulvejen",
      "city": "sundby",
      "state": "danmark",
      "postcode": 71252
    },
    "username": "heavypeacock986",
    "password": "feeling",
    "first_name": "signe",
    "last_name": "olsen",
    "title": "ms",
    "picture": "women/88.jpg"
  },
  {
    "email": "adam.porter@example.com",
    "gender": "male",
    "phone_number": "0419-934-681",
    "birthdate": 1080342831,
    "location": {
      "street": "2610 nowlin rd",
      "city": "australian capital territory",
      "state": "new south wales",
      "postcode": 5446
    },
    "username": "beautifulduck156",
    "password": "wanda",
    "first_name": "adam",
    "last_name": "porter",
    "title": "mr",
    "picture": "men/86.jpg"
  },
  {
    "email": "marcus.andersen@example.com",
    "gender": "male",
    "phone_number": "88776448",
    "birthdate": 23357273,
    "location": {
      "street": "5395 hovedvejen",
      "city": "vesterborg",
      "state": "midtjylland",
      "postcode": 63139
    },
    "username": "blackduck663",
    "password": "1003",
    "first_name": "marcus",
    "last_name": "andersen",
    "title": "mr",
    "picture": "men/33.jpg"
  },
  {
    "email": "melissa.fritz@example.com",
    "gender": "female",
    "phone_number": "0171-5413142",
    "birthdate": 962839131,
    "location": {
      "street": "1676 wiesenweg",
      "city": "schierbrok",
      "state": "nordrhein-westfalen",
      "postcode": 86673
    },
    "username": "purplefish635",
    "password": "superstar",
    "first_name": "melissa",
    "last_name": "fritz",
    "title": "miss",
    "picture": "women/89.jpg"
  },
  {
    "email": "kasper.klessens@example.com",
    "gender": "male",
    "phone_number": "(958)-321-7397",
    "birthdate": 1340386309,
    "location": {
      "street": "5521 servaasbolwerk",
      "city": "hendrik-ido-ambacht",
      "state": "flevoland",
      "postcode": 68192
    },
    "username": "silverlion762",
    "password": "komodo",
    "first_name": "kasper",
    "last_name": "klessens",
    "title": "mr",
    "picture": "men/2.jpg"
  },
  {
    "email": "isaltino.rocha@example.com",
    "gender": "male",
    "phone_number": "(36) 0570-2025",
    "birthdate": 426000120,
    "location": {
      "street": "8322 rua santa luzia ",
      "city": "marília",
      "state": "tocantins",
      "postcode": 21342
    },
    "username": "blackbear100",
    "password": "sandy1",
    "first_name": "isaltino",
    "last_name": "rocha",
    "title": "mr",
    "picture": "men/90.jpg"
  },
  {
    "email": "abigail.hamilton@example.com",
    "gender": "female",
    "phone_number": "081-273-7886",
    "birthdate": 870815573,
    "location": {
      "street": "4622 green lane",
      "city": "swords",
      "state": "idaho",
      "postcode": 77531
    },
    "username": "smallswan192",
    "password": "google",
    "first_name": "abigail",
    "last_name": "hamilton",
    "title": "mrs",
    "picture": "women/46.jpg"
  },
  {
    "email": "mason.abraham@example.com",
    "gender": "male",
    "phone_number": "807-178-9585",
    "birthdate": 985022570,
    "location": {
      "street": "3291 simcoe st",
      "city": "westport",
      "state": "alberta",
      "postcode": 55048
    },
    "username": "silvermouse222",
    "password": "belle",
    "first_name": "mason",
    "last_name": "abraham",
    "title": "mr",
    "picture": "algolia/men/honza.png"
  },
  {
    "email": "esat.hamzaoğlu@example.com",
    "gender": "male",
    "phone_number": "(215)-408-5458",
    "birthdate": 628284647,
    "location": {
      "street": "3347 doktorlar cd",
      "city": "manisa",
      "state": "yalova",
      "postcode": 21134
    },
    "username": "heavygorilla341",
    "password": "sable",
    "first_name": "esat",
    "last_name": "hamzaoğlu",
    "title": "mr",
    "picture": "men/9.jpg"
  },
  {
    "email": "rinesh.tielen@example.com",
    "gender": "male",
    "phone_number": "(017)-009-0789",
    "birthdate": 444995867,
    "location": {
      "street": "2259 kintgenshaven",
      "city": "kerkrade",
      "state": "zeeland",
      "postcode": 73367
    },
    "username": "organicduck267",
    "password": "weather",
    "first_name": "rinesh",
    "last_name": "tielen",
    "title": "mr",
    "picture": "men/89.jpg"
  },
  {
    "email": "delphine.taylor@example.com",
    "gender": "female",
    "phone_number": "602-884-3078",
    "birthdate": 1193621288,
    "location": {
      "street": "1426 charles st",
      "city": "chesterville",
      "state": "british columbia",
      "postcode": 86380
    },
    "username": "purplepanda581",
    "password": "2233",
    "first_name": "delphine",
    "last_name": "taylor",
    "title": "mrs",
    "picture": "women/17.jpg"
  },
  {
    "email": "jake.brown@example.com",
    "gender": "male",
    "phone_number": "(427)-211-8595",
    "birthdate": 341267763,
    "location": {
      "street": "9499 lake road",
      "city": "nelson",
      "state": "otago",
      "postcode": 90556
    },
    "username": "brownbear342",
    "password": "ramones",
    "first_name": "jake",
    "last_name": "brown",
    "title": "mr",
    "picture": "men/94.jpg"
  },
  {
    "email": "guillermo.saez@example.com",
    "gender": "male",
    "phone_number": "686-658-217",
    "birthdate": 724236927,
    "location": {
      "street": "3570 avenida de castilla",
      "city": "mérida",
      "state": "andalucía",
      "postcode": 14503
    },
    "username": "redduck278",
    "password": "santiago",
    "first_name": "guillermo",
    "last_name": "saez",
    "title": "mr",
    "picture": "men/19.jpg"
  },
  {
    "email": "judith.schmitz@example.com",
    "gender": "female",
    "phone_number": "0171-7824648",
    "birthdate": 1348121292,
    "location": {
      "street": "8227 römerstraße",
      "city": "mittweida",
      "state": "berlin",
      "postcode": 34006
    },
    "username": "smallcat785",
    "password": "prissy",
    "first_name": "judith",
    "last_name": "schmitz",
    "title": "miss",
    "picture": "women/49.jpg"
  },
  {
    "email": "tammy.bowman@example.com",
    "gender": "female",
    "phone_number": "081-064-2923",
    "birthdate": 833377307,
    "location": {
      "street": "1134 high street",
      "city": "carrigaline",
      "state": "missouri",
      "postcode": 50779
    },
    "username": "orangeduck243",
    "password": "plato",
    "first_name": "tammy",
    "last_name": "bowman",
    "title": "ms",
    "picture": "women/74.jpg"
  },
  {
    "email": "arnold.allen@example.com",
    "gender": "male",
    "phone_number": "081-841-6903",
    "birthdate": 985093723,
    "location": {
      "street": "1921 dame street",
      "city": "lusk",
      "state": "arizona",
      "postcode": 61214
    },
    "username": "bluesnake886",
    "password": "frank",
    "first_name": "arnold",
    "last_name": "allen",
    "title": "mr",
    "picture": "men/3.jpg"
  },
  {
    "email": "پرنیا.جعفری@example.com",
    "gender": "female",
    "phone_number": "0901-034-5061",
    "birthdate": 160836346,
    "location": {
      "street": "4435 شهید ثانی",
      "city": "قزوین",
      "state": "سمنان",
      "postcode": 39241
    },
    "username": "heavyladybug712",
    "password": "jerome",
    "first_name": "پرنیا",
    "last_name": "جعفری",
    "title": "ms",
    "picture": "women/13.jpg"
  },
  {
    "email": "gilbert.willis@example.com",
    "gender": "male",
    "phone_number": "(016)-019-8853",
    "birthdate": 16157918,
    "location": {
      "street": "5488 avondale ave",
      "city": "savannah",
      "state": "pennsylvania",
      "postcode": 10763
    },
    "username": "bluebear261",
    "password": "tinkerbe",
    "first_name": "gilbert",
    "last_name": "willis",
    "title": "mr",
    "picture": "men/27.jpg"
  },
  {
    "email": "selma.andersen@example.com",
    "gender": "female",
    "phone_number": "25728984",
    "birthdate": 1123567,
    "location": {
      "street": "3004 gefionsvej",
      "city": "nimtofte",
      "state": "hovedstaden",
      "postcode": 42642
    },
    "username": "bluedog190",
    "password": "lkjhgfds",
    "first_name": "selma",
    "last_name": "andersen",
    "title": "miss",
    "picture": "women/18.jpg"
  },
  {
    "email": "lara.metzger@example.com",
    "gender": "female",
    "phone_number": "0178-3288824",
    "birthdate": 416553041,
    "location": {
      "street": "8012 schlossstraße",
      "city": "hannover",
      "state": "bayern",
      "postcode": 83703
    },
    "username": "organiclion990",
    "password": "gateway",
    "first_name": "lara",
    "last_name": "metzger",
    "title": "miss",
    "picture": "women/24.jpg"
  },
  {
    "email": "andrea.hernandez@example.com",
    "gender": "female",
    "phone_number": "649-994-475",
    "birthdate": 1437798771,
    "location": {
      "street": "2906 avenida de andalucía",
      "city": "zaragoza",
      "state": "comunidad valenciana",
      "postcode": 18886
    },
    "username": "redduck501",
    "password": "lowrider",
    "first_name": "andrea",
    "last_name": "hernandez",
    "title": "ms",
    "picture": "women/56.jpg"
  },
  {
    "email": "johanne.christiansen@example.com",
    "gender": "female",
    "phone_number": "51301720",
    "birthdate": 245637395,
    "location": {
      "street": "8322 margrethevej",
      "city": "ugerløse",
      "state": "sjælland",
      "postcode": 40435
    },
    "username": "beautifulgorilla878",
    "password": "menace",
    "first_name": "johanne",
    "last_name": "christiansen",
    "title": "ms",
    "picture": "women/48.jpg"
  },
  {
    "email": "alfred.nielsen@example.com",
    "gender": "male",
    "phone_number": "13271213",
    "birthdate": 656385992,
    "location": {
      "street": "7542 græsvangen",
      "city": "saltum",
      "state": "danmark",
      "postcode": 81868
    },
    "username": "crazydog340",
    "password": "stinker",
    "first_name": "alfred",
    "last_name": "nielsen",
    "title": "mr",
    "picture": "men/47.jpg"
  },
  {
    "email": "dawn.neal@example.com",
    "gender": "female",
    "phone_number": "(562)-488-7757",
    "birthdate": 1334577493,
    "location": {
      "street": "6014 prospect rd",
      "city": "berkeley",
      "state": "louisiana",
      "postcode": 85457
    },
    "username": "purplecat469",
    "password": "chevy1",
    "first_name": "dawn",
    "last_name": "neal",
    "title": "ms",
    "picture": "women/62.jpg"
  },
  {
    "email": "charlie.palmer@example.com",
    "gender": "male",
    "phone_number": "081-156-7483",
    "birthdate": 853460249,
    "location": {
      "street": "9902 south street",
      "city": "portmarnock",
      "state": "utah",
      "postcode": 47846
    },
    "username": "lazyladybug983",
    "password": "deedee",
    "first_name": "charlie",
    "last_name": "palmer",
    "title": "mr",
    "picture": "men/97.jpg"
  },
  {
    "email": "romain.noel@example.com",
    "gender": "male",
    "phone_number": "(479)-467-1253",
    "birthdate": 759959900,
    "location": {
      "street": "3524 rue dumenge",
      "city": "servion",
      "state": "thurgau",
      "postcode": 7239
    },
    "username": "goldenpanda940",
    "password": "jackoff",
    "first_name": "romain",
    "last_name": "noel",
    "title": "monsieur",
    "picture": "men/98.jpg"
  }
]